module vault-operator

go 1.22.1

require (
	github.com/hashicorp/vault/api v1.12.0
	github.com/mitchellh/go-homedir v1.1.0
	github.com/sirupsen/logrus v1.5.0
)

require (
	github.com/cenkalti/backoff/v3 v3.0.0 // indirect
	github.com/go-jose/go-jose/v3 v3.0.1 // indirect
	github.com/hashicorp/errwrap v1.1.0 // indirect
	github.com/hashicorp/go-cleanhttp v0.5.2 // indirect
	github.com/hashicorp/go-multierror v1.1.1 // indirect
	github.com/hashicorp/go-retryablehttp v0.6.6 // indirect
	github.com/hashicorp/go-rootcerts v1.0.2 // indirect
	github.com/hashicorp/go-secure-stdlib/parseutil v0.1.6 // indirect
	github.com/hashicorp/go-secure-stdlib/strutil v0.1.2 // indirect
	github.com/hashicorp/go-sockaddr v1.0.2 // indirect
	github.com/hashicorp/hcl v1.0.0 // indirect
	github.com/konsorten/go-windows-terminal-sequences v1.0.1 // indirect
	github.com/mitchellh/mapstructure v1.5.0 // indirect
	github.com/ryanuber/go-glob v1.0.0 // indirect
	golang.org/x/crypto v0.17.0 // indirect
	golang.org/x/net v0.17.0 // indirect
	golang.org/x/sys v0.15.0 // indirect
	golang.org/x/text v0.14.0 // indirect
	golang.org/x/time v0.0.0-20200416051211-89c76fbcd5d1 // indirect
)
